<svg width="83" height="32" viewBox="0 0 83 32" fill="none" xmlns="http://www.w3.org/2000/svg">
<g clip-path="url(#clip0)">
<path d="M82.5442 26.744C82.2663 26.795 82.0069 26.8461 81.7454 26.891C81.484 26.936 81.1837 26.9952 80.9018 27.0218C80.8556 27.0238 80.8097 27.0144 80.768 26.9944C80.7263 26.9745 80.6902 26.9446 80.6628 26.9074C80.3727 26.1209 79.5107 25.8594 78.761 25.933C78.5749 25.951 78.3909 25.9866 78.2114 26.0392C77.4066 26.2741 76.9082 26.9135 76.8632 27.8246C76.8454 28.206 76.8749 28.5882 76.9511 28.9624C77.1737 30.0635 78.1257 30.5517 79.143 30.4945C79.6408 30.4586 80.124 30.3105 80.5566 30.0614C80.7281 29.9675 80.8487 29.467 80.722 29.3301C80.6567 29.2835 80.5773 29.2612 80.4973 29.2668C80.0642 29.2668 79.6312 29.2504 79.2002 29.2668C78.9428 29.279 78.8754 29.1892 78.8917 28.9461C78.9121 28.6356 78.8917 28.3332 78.8917 28.0146C78.8917 27.8757 78.9223 27.8103 79.0817 27.8103C80.2011 27.8103 81.3199 27.8103 82.4379 27.8103C82.5912 27.8103 82.6422 27.8654 82.6422 28.0146C82.6422 28.8868 82.6422 29.7611 82.6422 30.6354C82.6332 30.7433 82.5818 30.8433 82.4992 30.9133C81.873 31.3763 81.1479 31.6874 80.3809 31.8223C79.1716 32.0633 77.9786 32.0388 76.8489 31.4689C75.7193 30.899 75.133 29.8939 74.9818 28.6376C74.8929 27.9465 74.9924 27.2442 75.2699 26.605C75.4642 26.1388 75.7622 25.723 76.1413 25.3892C76.5204 25.0554 76.9706 24.8124 77.4577 24.6787C78.5418 24.3467 79.7028 24.3632 80.7772 24.7257C81.7107 25.0444 82.3011 25.7226 82.5442 26.744Z" fill="#6D6F72"/>
<path d="M35.7221 20.5217H32.0063C33.0591 14.1469 34.1097 7.77752 35.1583 1.4136H38.8619C38.4915 3.63614 38.1231 5.85323 37.7567 8.06486L37.8078 8.09551C37.8671 8.00971 37.9263 7.92596 37.9835 7.84016C38.4595 7.12928 39.0049 6.50215 39.822 6.16713C40.3509 5.93548 40.9216 5.81419 41.499 5.81068C42.0765 5.80716 42.6486 5.9215 43.1803 6.1467C44.0464 6.50827 44.4632 7.25184 44.6409 8.13432C44.8186 9.0168 44.7185 9.90336 44.5735 10.7899L43.2681 18.6811C43.168 19.294 43.0639 19.9068 42.9556 20.5196H39.1029C39.1806 20.1111 39.2582 19.7148 39.3317 19.3164C39.7403 17.1286 40.1488 14.9408 40.5267 12.7489C40.5939 12.3056 40.6151 11.8566 40.5901 11.4089C40.5553 10.4815 39.8588 10.0198 38.9763 10.318C38.5349 10.4781 38.161 10.7835 37.9161 11.1842C37.4402 11.9307 37.1161 12.7637 36.9621 13.6355C36.6373 15.2146 36.3493 16.8038 36.0694 18.3911C35.9407 19.0897 35.8386 19.7985 35.7221 20.5217Z" fill="#353590"/>
<path d="M77.0468 20.538C77.1489 19.9252 77.2511 19.3512 77.3389 18.7751C77.5942 17.2491 77.8455 15.7232 78.109 14.1993C78.2459 13.3944 78.4073 12.5937 78.346 11.7725C78.3339 11.553 78.2934 11.336 78.2255 11.127C77.9885 10.4467 77.3103 10.1566 76.6893 10.5141C76.3444 10.7305 76.0413 11.0073 75.7946 11.3312C75.2369 12.0462 74.9775 12.9062 74.8038 13.7826C74.5158 15.2125 74.2686 16.6281 74.0133 18.054C73.8682 18.8711 73.7416 19.6882 73.6047 20.5217H69.9277L72.2422 6.25291H75.9907C75.8844 6.83101 75.7864 7.39686 75.6781 7.96066L75.7251 7.99335C75.7803 7.92594 75.8395 7.86057 75.8906 7.78907C76.5177 6.95358 77.2756 6.29989 78.3113 6.01799C79.0592 5.8015 79.8532 5.8015 80.6012 6.01799C81.7104 6.34483 82.2987 7.12313 82.4887 8.22622C82.6419 9.123 82.5234 10.0136 82.3764 10.9023C82.1292 12.4037 81.8963 13.9092 81.6573 15.4127L80.9403 19.8741C80.9113 20.0011 80.8921 20.1302 80.8831 20.2602C80.8831 20.4808 80.7953 20.5462 80.5726 20.5441C79.4144 20.5339 78.2541 20.538 77.0468 20.538Z" fill="#353590"/>
<path d="M29.1912 20.5217H25.4223C25.4897 20.1131 25.5531 19.723 25.6266 19.3328C25.9759 17.29 26.3457 15.2472 26.6602 13.2045C26.7501 12.5991 26.7501 11.9837 26.6602 11.3782C26.5152 10.3998 25.6389 10.0688 24.8218 10.6306C24.2957 11.0255 23.8926 11.5618 23.6594 12.177C23.2859 13.0928 23.0239 14.0502 22.8791 15.0287C22.5686 16.7875 22.2846 18.5504 21.9905 20.3113C21.97 20.44 21.9517 20.538 21.7862 20.536C20.6668 20.536 19.5391 20.536 18.4279 20.536C18.3817 20.5322 18.336 20.5247 18.291 20.5135C19.0673 15.7593 19.8435 11.0065 20.6198 6.25497H24.3478C24.2396 6.84533 24.1436 7.43161 24.0271 8.01993L24.0721 8.04444C24.1865 7.8994 24.3029 7.75641 24.4152 7.61137C24.7414 7.16083 25.1539 6.77964 25.6288 6.48997C26.1036 6.20029 26.6313 6.00792 27.1812 5.92404C27.9366 5.78611 28.7161 5.88159 29.4159 6.19777C30.3475 6.64514 30.7662 7.44795 30.8745 8.42644C30.9828 9.40492 30.8255 10.4263 30.6702 11.4171C30.3788 13.2201 30.0853 15.0239 29.7898 16.8284C29.5937 18.0499 29.3935 19.2735 29.1912 20.5217Z" fill="#353590"/>
<path d="M3.9977 5.52568H0C0.106224 4.86382 0.204277 4.22852 0.310501 3.59526C0.416725 2.962 0.535206 2.27768 0.631216 1.61582C0.657772 1.43401 0.729269 1.39111 0.898819 1.39111H12.3669C12.4323 1.39111 12.4956 1.39111 12.6059 1.4095L11.9257 5.51547H7.98315C7.16604 10.5223 6.36731 15.5067 5.55838 20.5115H1.44424C2.29403 15.525 3.14178 10.5489 3.9977 5.52568Z" fill="#353590"/>
<path d="M63.277 20.4992C63.439 19.6331 63.6004 18.7635 63.7611 17.8906L63.6794 17.8293C63.6483 17.8913 63.6135 17.9513 63.5752 18.0091C63.0005 18.8139 62.4272 19.6201 61.8552 20.4277C61.8143 20.4849 61.7735 20.5584 61.7142 20.583C61.2693 20.792 60.7834 20.8992 60.2919 20.8967C59.8003 20.8943 59.3155 20.7822 58.8728 20.5687C58.1333 20.2112 57.784 19.5473 57.6205 18.7894C57.1732 16.6915 57.7145 14.8591 59.2057 13.325C59.8696 12.6427 60.7337 12.275 61.6203 11.9747C62.3679 11.7214 63.1258 11.4947 63.8673 11.2393C64.134 11.1652 64.3729 11.0144 64.5545 10.8055C64.7361 10.5967 64.8523 10.3391 64.8887 10.0647C64.9929 9.40491 64.6558 8.97797 63.9899 8.95346C63.1728 8.92486 62.3884 9.15773 61.6346 9.44781C60.7358 9.78691 59.8553 10.175 58.979 10.5407C58.9872 10.5054 58.9974 10.4706 59.0096 10.4365C59.4897 9.26396 59.9758 8.09754 60.4661 6.94541C60.5078 6.84497 60.5858 6.76397 60.6847 6.71867C62.3516 6.20184 64.0389 5.79942 65.8039 5.90156C66.3595 5.92604 66.904 6.06514 67.4033 6.31011C68.2491 6.73909 68.6617 7.45815 68.7679 8.38148C68.8598 9.19859 68.6739 9.9728 68.5453 10.7593C68.2327 12.6897 67.9079 14.6201 67.5892 16.5505C67.385 17.8293 67.1664 19.1081 66.9458 20.3868C66.9334 20.4226 66.9124 20.4548 66.8846 20.4805C66.8568 20.5061 66.8231 20.5245 66.7864 20.5339C65.6343 20.5339 64.4822 20.5339 63.3301 20.5339C63.326 20.5278 63.3056 20.5135 63.277 20.4992ZM64.3882 14.2238C63.5813 14.6038 62.799 14.9429 62.0452 15.3371C61.788 15.4658 61.5673 15.6571 61.4034 15.8934C61.2396 16.1297 61.1378 16.4035 61.1075 16.6894C60.9993 17.5065 61.4528 17.9641 62.2658 17.8375C62.6846 17.7721 63.0972 17.672 63.516 17.6189C63.7652 17.5862 63.8489 17.4698 63.8837 17.2349C63.9817 16.5914 64.1043 15.952 64.2146 15.3106C64.2738 14.9531 64.329 14.5956 64.3882 14.2238Z" fill="#353590"/>
<path d="M58.497 6.23453L57.7902 7.88917C56.0198 12.036 54.2494 16.1835 52.479 20.3317C52.432 20.444 52.3952 20.536 52.2277 20.536C51.0021 20.5257 49.7601 20.536 48.5262 20.536C48.4831 20.5335 48.4401 20.5288 48.3975 20.5217C47.9645 15.7743 47.53 11.0194 47.0942 6.257H50.8529C50.9891 9.25306 51.1301 12.2553 51.2758 15.2636L51.3146 15.2799C51.3475 15.2134 51.3768 15.1452 51.4024 15.0756C52.4579 12.2267 53.5106 9.37427 54.5606 6.51847C54.5804 6.42305 54.6363 6.33896 54.7166 6.28377C54.7969 6.22858 54.8954 6.20654 54.9916 6.22227C56.1437 6.2427 57.2958 6.23453 58.497 6.23453Z" fill="#353590"/>
<path d="M18.3132 1.42993L15.2164 20.5176H11.4536C11.4965 20.2398 11.5353 19.9619 11.5803 19.6862C12.1672 16.2312 12.7501 12.7837 13.3289 9.34363C13.429 8.75531 13.5332 8.17107 13.621 7.58276C13.6267 7.51085 13.653 7.44211 13.6969 7.38484C13.7407 7.32757 13.8002 7.28421 13.8682 7.26C14.9944 6.7425 16.1186 6.22227 17.2408 5.69932C17.3294 5.66359 17.4085 5.60763 17.4716 5.5359H13.9254C14.0663 4.67385 14.2011 3.84653 14.3339 3.01716C14.4095 2.55141 14.481 2.08362 14.5688 1.61991C14.5831 1.54841 14.673 1.43606 14.7282 1.43402C15.9048 1.42993 17.0814 1.42993 18.3132 1.42993Z" fill="#353590"/>
<path d="M71.9835 28.8235V28.5661C71.9835 27.3404 71.9835 26.0984 71.9835 24.8646C71.9835 24.6481 72.0264 24.5602 72.2633 24.5704C72.6882 24.5909 73.1131 24.5827 73.538 24.5704C73.7015 24.5704 73.7668 24.6072 73.7668 24.787C73.7668 27.0667 73.7668 29.3458 73.7668 31.6241C73.7668 31.7998 73.7117 31.8509 73.5421 31.8468C73.0764 31.8468 72.6106 31.8468 72.1449 31.8468C72.0811 31.8516 72.0173 31.8383 71.9609 31.8083C71.9045 31.7782 71.8578 31.7328 71.8262 31.6772C70.9396 30.4025 70.0503 29.1313 69.1583 27.8634C69.1088 27.7877 69.0376 27.7286 68.9541 27.6938V27.9471C68.9541 29.1728 68.9541 30.3821 68.9541 31.5996C68.9541 31.8039 68.8948 31.8529 68.7028 31.8468C68.2616 31.8345 67.8203 31.8468 67.3791 31.8468C67.2177 31.8468 67.1748 31.7937 67.1748 31.6425C67.1748 29.3546 67.1748 27.0674 67.1748 24.7808C67.1748 24.6358 67.2157 24.5766 67.3689 24.5766C67.8428 24.5766 68.3167 24.5766 68.7988 24.5888C68.8593 24.6014 68.9167 24.626 68.9675 24.6611C69.0184 24.6961 69.0617 24.741 69.095 24.7931C70.004 26.0903 70.9049 27.3935 71.8099 28.6948C71.8466 28.7459 71.8875 28.7969 71.9263 28.848L71.9835 28.8235Z" fill="#6D6F72"/>
<path d="M52.9732 28.6989C54.0865 29.5466 54.6667 30.7703 55.5307 31.8468C54.7647 31.8468 54.0661 31.8468 53.3675 31.8468C53.2919 31.8468 53.204 31.7528 53.1489 31.6813C52.5606 30.9296 51.975 30.1751 51.3921 29.4179C51.0346 28.9501 50.526 28.9134 50.003 28.9236C49.8273 28.9236 49.8539 29.0686 49.8539 29.1769C49.8539 29.9532 49.8539 30.7294 49.8539 31.5057C49.8539 31.855 49.8539 31.855 49.5128 31.855C49.0797 31.855 48.6466 31.855 48.2136 31.855C48.0522 31.855 48.0093 31.8019 48.0093 31.6507C48.0093 29.3655 48.0093 27.0783 48.0093 24.789C48.0093 24.6215 48.0767 24.5847 48.2279 24.5847C49.5107 24.5847 50.7936 24.5847 52.0744 24.597C52.498 24.6052 52.9191 24.6641 53.3286 24.7727C53.7148 24.8744 54.0593 25.0947 54.3136 25.4025C54.568 25.7103 54.7193 26.0902 54.7463 26.4886C54.7994 27.4365 54.3991 28.1228 53.5636 28.4885C53.3777 28.5579 53.1918 28.6172 52.9732 28.6989ZM50.6608 27.5509V27.5774C51.1715 27.5468 51.6822 27.5366 52.1929 27.4753C52.2834 27.4731 52.3726 27.4524 52.4549 27.4146C52.5371 27.3767 52.6109 27.3225 52.6715 27.2552C52.7321 27.1879 52.7783 27.1089 52.8074 27.0231C52.8364 26.9373 52.8477 26.8465 52.8404 26.7562C52.8442 26.6655 52.8291 26.575 52.7961 26.4905C52.7632 26.4059 52.7131 26.329 52.649 26.2648C52.5849 26.2005 52.5082 26.1502 52.4238 26.117C52.3393 26.0838 52.2488 26.0684 52.1581 26.0719C51.4513 26.0249 50.7405 26.0331 50.0337 26.031C49.9744 26.031 49.8702 26.1434 49.8682 26.2067C49.8519 26.5887 49.8682 26.9727 49.858 27.3568C49.858 27.5059 49.9336 27.5611 50.0725 27.5611L50.6608 27.5509Z" fill="#6D6F72"/>
<path d="M4.01236 24.4499C5.03375 24.4499 5.97138 24.6767 6.77623 25.3324C7.1171 25.6183 7.39788 25.969 7.6023 26.3642C7.80672 26.7594 7.93074 27.1912 7.96716 27.6346C8.05929 28.2908 8.00061 28.9594 7.79557 29.5895C7.32778 30.9582 6.30435 31.6691 4.92139 31.8897C4.08321 32.043 3.21993 31.9833 2.41083 31.7161C1.07894 31.2544 0.284305 30.3188 0.104541 28.8991C-0.030282 27.8368 0.067771 26.8134 0.729629 25.9146C1.006 25.534 1.35808 25.2147 1.76376 24.9767C2.16944 24.7387 2.61994 24.5872 3.08699 24.5316C3.3934 24.4867 3.7039 24.4765 4.01236 24.4499ZM6.12867 28.1902C6.09803 26.8338 5.55057 26.1189 4.32082 25.9432C3.44039 25.8186 2.42104 26.1801 2.12688 27.2056C2.01793 27.6296 1.97589 28.0679 2.00227 28.5048C2.04517 29.6631 2.70703 30.3699 3.85711 30.4863C4.807 30.5844 5.75484 30.0961 5.99793 29.0339C6.05309 28.7581 6.0776 28.4742 6.12867 28.1902Z" fill="#6D6F72"/>
<path d="M34.9314 24.4785C35.9732 24.4581 36.9394 24.6828 37.7504 25.3855C38.0917 25.6797 38.3693 26.0406 38.566 26.446C38.7627 26.8514 38.8745 27.2927 38.8944 27.7429C38.9731 28.4016 38.9033 29.0696 38.6901 29.6978C38.1998 31.0011 37.1784 31.663 35.8547 31.8897C35.0799 32.0259 34.2845 31.9882 33.526 31.7794C32.1103 31.3708 31.0522 30.2637 30.9848 28.511C30.9337 27.2077 31.2442 26.0719 32.3146 25.2303C32.9214 24.78 33.6477 24.5192 34.4023 24.4806C34.58 24.4642 34.7598 24.4785 34.9314 24.4785ZM37.015 28.2618C36.9926 26.9871 36.5411 26.0964 35.2235 25.9391C34.3656 25.837 33.2584 26.1597 32.9867 27.3466C32.9015 27.7845 32.8795 28.2323 32.9213 28.6764C32.9265 29.0309 33.0374 29.3758 33.2397 29.6669C33.442 29.9581 33.7266 30.1822 34.0571 30.3106C34.4101 30.4778 34.8027 30.5435 35.1909 30.5002C35.5791 30.4569 35.9476 30.3064 36.2551 30.0655C36.8863 29.5977 36.9864 28.9011 37.0232 28.2618H37.015Z" fill="#6D6F72"/>
<path d="M29.9472 26.8338C29.3487 26.8563 28.7951 26.8788 28.2435 26.891C28.2113 26.886 28.1809 26.8729 28.1552 26.8529C28.1295 26.8329 28.1093 26.8066 28.0965 26.7766C27.9126 25.982 27.4101 25.9003 26.7503 25.8901C26.4728 25.8984 26.1978 25.9451 25.9332 26.029C25.7289 26.0841 25.5471 26.2047 25.5471 26.4375C25.5536 26.5364 25.5929 26.6302 25.6588 26.7042C25.7246 26.7782 25.8133 26.8281 25.9107 26.8461C26.4091 26.9973 26.9157 27.1178 27.4162 27.2546C27.8636 27.3793 28.3191 27.4834 28.7502 27.6489C29.6183 27.9819 30.1515 28.5988 30.1801 29.5609C30.2059 30.0058 30.0848 30.4468 29.8352 30.8159C29.5857 31.1851 29.2216 31.4619 28.7992 31.6037C27.5891 32.0929 26.2363 32.0929 25.0262 31.6037C24.0252 31.2054 23.5819 30.378 23.4614 29.2954C23.6984 29.2729 23.9231 29.2504 24.1478 29.232C24.4644 29.2055 24.779 29.1708 25.0977 29.1605C25.1413 29.1643 25.1831 29.1796 25.219 29.2047C25.2549 29.2298 25.2835 29.2639 25.302 29.3035C25.5593 30.3883 26.3969 30.5782 27.3345 30.4475C27.6138 30.4023 27.8769 30.2863 28.0985 30.1104C28.1854 30.0559 28.2543 29.977 28.2965 29.8835C28.3387 29.79 28.3524 29.6862 28.3358 29.5849C28.3192 29.4837 28.2731 29.3896 28.2033 29.3145C28.1335 29.2394 28.043 29.1865 27.9433 29.1626C27.4264 28.9767 26.8769 28.8786 26.3458 28.7275C25.9037 28.6197 25.469 28.4832 25.0446 28.3189C24.3153 28.0043 23.8189 27.4569 23.7719 26.6336C23.7519 26.3263 23.8111 26.019 23.9437 25.7411C24.0764 25.4632 24.2782 25.224 24.5298 25.0464C24.9984 24.6978 25.5602 24.4965 26.1436 24.4683C26.8422 24.3853 27.5502 24.4331 28.2313 24.6093C29.1076 24.8687 29.7307 25.3876 29.9227 26.3231C29.9414 26.4927 29.9496 26.6633 29.9472 26.8338Z" fill="#6D6F72"/>
<path d="M13.7401 27.0565C13.7401 26.3048 13.7401 25.553 13.7401 24.8094C13.7401 24.6419 13.783 24.5786 13.9587 24.5807C14.4408 24.5807 14.9229 24.5807 15.405 24.5807C15.5602 24.5807 15.6092 24.6215 15.6092 24.7849C15.6092 26.1577 15.6092 27.5304 15.6092 28.9011C15.6067 29.3006 15.5691 29.6991 15.4969 30.0921C15.3049 31.0889 14.6144 31.616 13.685 31.8305C12.759 32.045 11.7951 32.0345 10.8741 31.7998C9.77917 31.524 9.11527 30.7294 9.08463 29.6038C9.03969 27.9982 9.04582 26.3885 9.02539 24.7808C9.02539 24.6113 9.09484 24.5766 9.24601 24.5766C9.70359 24.5766 10.1612 24.5888 10.6167 24.5766C10.821 24.5766 10.8802 24.644 10.8802 24.8421C10.8802 26.1086 10.8802 27.3752 10.8802 28.6417C10.8789 28.9268 10.8918 29.2118 10.919 29.4956C10.9335 29.6972 11.0088 29.8897 11.135 30.0476C11.2612 30.2056 11.4324 30.3215 11.6258 30.3801C12.0897 30.5509 12.5983 30.5566 13.066 30.3964C13.5951 30.2207 13.7299 29.7836 13.734 29.2892C13.734 28.5457 13.734 27.8021 13.734 27.0606L13.7401 27.0565Z" fill="#6D6F72"/>
<path d="M46.502 27.1443C46.502 27.894 46.5203 28.6458 46.502 29.3914C46.4923 29.7385 46.4331 30.0824 46.3263 30.4128C46.0505 31.2299 45.3968 31.6384 44.6042 31.8162C43.6943 32.0236 42.7485 32.0153 41.8424 31.7917C40.7454 31.522 40.1162 30.8009 40.0264 29.6753C39.9651 28.897 39.9712 28.1106 39.963 27.3282C39.9528 26.5111 39.963 25.6797 39.963 24.8544C39.963 24.6501 40.008 24.548 40.247 24.5582C40.6862 24.5786 41.1274 24.5745 41.5687 24.5582C41.7729 24.5582 41.8199 24.6154 41.8179 24.8074C41.8179 26.1693 41.8179 27.525 41.8179 28.8746C41.8145 29.1112 41.8316 29.3477 41.8689 29.5814C41.9023 29.7721 41.99 29.9491 42.1215 30.0912C42.2531 30.2332 42.4229 30.3343 42.6105 30.3821C43.0491 30.5211 43.52 30.5211 43.9587 30.3821C44.1557 30.3349 44.3306 30.2216 44.454 30.0609C44.5774 29.9003 44.642 29.7022 44.6369 29.4997C44.6594 27.9574 44.6696 26.4151 44.6839 24.8707C44.6839 24.5521 44.6839 24.5521 45.0026 24.5521C45.4275 24.5521 45.8524 24.5521 46.2773 24.5521C46.4815 24.5521 46.5387 24.6236 46.5367 24.8197C46.5265 25.5877 46.5367 26.3558 46.5367 27.1239L46.502 27.1443Z" fill="#6D6F72"/>
<path d="M62.9173 26.7399C62.3392 26.8583 61.7774 26.9809 61.2116 27.0871C61.1759 27.0841 61.1416 27.0718 61.1122 27.0513C61.0829 27.0309 61.0593 27.0031 61.0441 26.9707C60.8214 26.1944 60.0615 25.8737 59.3527 25.9268C58.4906 25.9922 57.9227 26.4743 57.7409 27.2832C57.5995 27.9053 57.6065 28.5519 57.7613 29.1708C57.9656 30.0042 58.5499 30.4863 59.4119 30.4986C60.1514 30.4986 60.7315 30.186 61.0318 29.3342C61.1564 28.9849 61.1585 28.9849 61.5221 29.085C61.9306 29.1973 62.3392 29.3178 62.7477 29.4261C62.903 29.4649 62.9398 29.5262 62.8866 29.6835C62.4638 30.9602 61.5977 31.714 60.2617 31.8999C59.1463 32.0552 58.08 31.9387 57.1342 31.2544C56.2456 30.6109 55.8289 29.71 55.7533 28.6417C55.6885 27.9732 55.7751 27.2988 56.0066 26.6684C56.4948 25.4325 57.4365 24.7563 58.7194 24.5337C59.4846 24.3853 60.275 24.4352 61.0155 24.6787C61.4862 24.8238 61.9101 25.091 62.2441 25.453C62.5782 25.815 62.8104 26.259 62.9173 26.7399Z" fill="#6D6F72"/>
<path d="M19.7838 24.5766C20.8052 24.5766 21.8082 24.5766 22.8214 24.5766C23.0257 24.5766 23.0809 24.6297 23.0707 24.8258C23.0543 25.1436 23.0543 25.462 23.0707 25.7798C23.0707 25.984 23.0012 26.029 22.8153 26.0249C22.2188 26.0249 21.6223 26.0249 21.0258 26.0249C20.7848 26.0249 20.7051 26.0841 20.7072 26.3374C20.7174 28.0779 20.7072 29.8102 20.7194 31.5588C20.7194 31.8162 20.6438 31.8754 20.4007 31.8652C19.9616 31.8468 19.5203 31.8509 19.0791 31.8652C18.8748 31.8652 18.8319 31.8039 18.8319 31.6119C18.8319 29.849 18.8319 28.084 18.8319 26.3191C18.8319 26.1005 18.7808 26.0188 18.548 26.0249C17.9351 26.0392 17.3223 26.0249 16.7095 26.0249C16.5297 26.0249 16.4602 25.98 16.4684 25.792C16.482 25.4652 16.482 25.1383 16.4684 24.8115C16.4684 24.6236 16.5277 24.5766 16.7074 24.5766C17.7411 24.5807 18.7624 24.5766 19.7838 24.5766Z" fill="#6D6F72"/>
<path d="M61.3076 4.8046L66.008 0L68.2551 4.8046H61.3076Z" fill="#353590"/>
<path d="M65.8731 28.2393C65.8731 29.3485 65.8731 30.4597 65.8731 31.569C65.8731 31.8018 65.8016 31.8611 65.581 31.8529C65.1724 31.8366 64.7476 31.8325 64.3329 31.8529C64.0857 31.8652 64.0122 31.7937 64.0142 31.5424C64.0244 29.7039 64.0142 27.8511 64.0142 26.0065C64.0142 25.6225 64.0142 25.2384 64.0142 24.8544C64.0142 24.6501 64.0571 24.5623 64.2838 24.5725C64.7251 24.5888 65.1663 24.5868 65.6076 24.5725C65.8118 24.5725 65.8711 24.6276 65.8711 24.834C65.867 25.9677 65.8731 27.1035 65.8731 28.2393Z" fill="#6D6F72"/>
</g>
<defs>
<clipPath id="clip0">
<rect width="82.6362" height="32" fill="white"/>
</clipPath>
</defs>
</svg>
